Site,r0h0,r0h1,r1h0,r1h1,r2h0,r3h0,r3h1,r3h2,r3h3,r4h0,r4h1,r5h0,r5h1
Toronto,0.724821997049366,0.724821997049366,0.338250265289704,0.338250265289704,0.695539309121924,0.367547703626634,0.367547703626634,0.367547703626634,0.367547703626634,0.754785462804697,0.754785462804697,0.754785462804697,0.754785462804697
Scandinavia,0,0,0.386571731759662,0.386571731759662,0,0.420054518430439,0.420054518430439,0.420054518430439,0.420054518430439,0,0,0,0
Zeuthen,0.821464929989281,0.821464929989281,0.386571731759662,0.386571731759662,0,0.420054518430439,0.420054518430439,0.420054518430439,0.420054518430439,0,0,0.628987885670581,0.628987885670581
Hamburg,0,0,0,0,0.37095429819836,0,0,0,0,0.402552246829172,0.402552246829172,0,0
Dortmund,0,0,0,0,0.417323585473155,0,0,0,0,0,0,0.226435638841409,0.226435638841409
Freiburg,0,0,0.43489319822962,0.43489319822962,0,0.472561333234243,0.472561333234243,0.472561333234243,0.472561333234243,0.452871277682818,0.452871277682818,0,0
