{
  "shell_port": 58079,
  "iopub_port": 36407,
  "stdin_port": 52089,
  "control_port": 34907,
  "hb_port": 56421,
  "ip": "127.0.0.1",
  "key": "d7ed0ade-b4540e293890b2f31a44ba95",
  "transport": "tcp",
  "signature_scheme": "hmac-sha256",
  "kernel_name": ""
}