{
  "shell_port": 42509,
  "iopub_port": 58831,
  "stdin_port": 38083,
  "control_port": 35973,
  "hb_port": 53197,
  "ip": "127.0.0.1",
  "key": "edeb5efe-c8a4608315f9c099779cd2c2",
  "transport": "tcp",
  "signature_scheme": "hmac-sha256",
  "kernel_name": ""
}