{
  "shell_port": 44509,
  "iopub_port": 37355,
  "stdin_port": 51625,
  "control_port": 46605,
  "hb_port": 53547,
  "ip": "127.0.0.1",
  "key": "dbad8491-6e34b57b5b753f9a33450bef",
  "transport": "tcp",
  "signature_scheme": "hmac-sha256",
  "kernel_name": ""
}