{
  "shell_port": 55971,
  "iopub_port": 39249,
  "stdin_port": 34473,
  "control_port": 60959,
  "hb_port": 44929,
  "ip": "127.0.0.1",
  "key": "aaf6eec4-7192a8afd08c1516b13c82fc",
  "transport": "tcp",
  "signature_scheme": "hmac-sha256",
  "kernel_name": ""
}