{
  "shell_port": 43605,
  "iopub_port": 50875,
  "stdin_port": 49463,
  "control_port": 55017,
  "hb_port": 35035,
  "ip": "127.0.0.1",
  "key": "2396370e-8445e6bbf7414a7288cf14bb",
  "transport": "tcp",
  "signature_scheme": "hmac-sha256",
  "kernel_name": ""
}