{
  "shell_port": 50265,
  "iopub_port": 46095,
  "stdin_port": 55821,
  "control_port": 52413,
  "hb_port": 47873,
  "ip": "127.0.0.1",
  "key": "6028387d-fe03f0d5a450c4e74ebfc0c9",
  "transport": "tcp",
  "signature_scheme": "hmac-sha256",
  "kernel_name": ""
}