{
  "shell_port": 33893,
  "iopub_port": 49359,
  "stdin_port": 35903,
  "control_port": 47471,
  "hb_port": 51743,
  "ip": "127.0.0.1",
  "key": "953e4105-f6f3626d94c49f147d64f28d",
  "transport": "tcp",
  "signature_scheme": "hmac-sha256",
  "kernel_name": ""
}