{
  "shell_port": 38713,
  "iopub_port": 34833,
  "stdin_port": 40555,
  "control_port": 47309,
  "hb_port": 60997,
  "ip": "127.0.0.1",
  "key": "4b9de423-f2dc27e738e5ce11a1368c0e",
  "transport": "tcp",
  "signature_scheme": "hmac-sha256",
  "kernel_name": ""
}