{
  "shell_port": 50073,
  "iopub_port": 53231,
  "stdin_port": 55261,
  "control_port": 57301,
  "hb_port": 36923,
  "ip": "127.0.0.1",
  "key": "600384c6-98878fe097828b9bf22625c3",
  "transport": "tcp",
  "signature_scheme": "hmac-sha256",
  "kernel_name": ""
}