{
  "shell_port": 49199,
  "iopub_port": 33559,
  "stdin_port": 49247,
  "control_port": 36861,
  "hb_port": 39795,
  "ip": "127.0.0.1",
  "key": "7afcc24e-cb31fa33178ddff0dd4ec750",
  "transport": "tcp",
  "signature_scheme": "hmac-sha256",
  "kernel_name": ""
}