{
  "shell_port": 50721,
  "iopub_port": 37435,
  "stdin_port": 41263,
  "control_port": 42687,
  "hb_port": 47267,
  "ip": "127.0.0.1",
  "key": "0027d4c6-89577da5f2d974ff89f46a58",
  "transport": "tcp",
  "signature_scheme": "hmac-sha256",
  "kernel_name": ""
}