{
  "shell_port": 49821,
  "iopub_port": 46125,
  "stdin_port": 34295,
  "control_port": 52419,
  "hb_port": 42819,
  "ip": "127.0.0.1",
  "key": "0c7bd779-db44d07394cc023d5dc1d6dd",
  "transport": "tcp",
  "signature_scheme": "hmac-sha256",
  "kernel_name": ""
}