{
  "shell_port": 45127,
  "iopub_port": 40137,
  "stdin_port": 36277,
  "control_port": 60507,
  "hb_port": 56847,
  "ip": "127.0.0.1",
  "key": "ccf6752b-e7301abd175ba9c1158da590",
  "transport": "tcp",
  "signature_scheme": "hmac-sha256",
  "kernel_name": ""
}