{
  "shell_port": 60437,
  "iopub_port": 46547,
  "stdin_port": 57817,
  "control_port": 50597,
  "hb_port": 41783,
  "ip": "127.0.0.1",
  "key": "44237cc5-dc4369554c302890086cfe56",
  "transport": "tcp",
  "signature_scheme": "hmac-sha256",
  "kernel_name": ""
}