{
  "shell_port": 35649,
  "iopub_port": 50801,
  "stdin_port": 39685,
  "control_port": 54025,
  "hb_port": 50465,
  "ip": "127.0.0.1",
  "key": "b3cb4e70-c2f8b4277ded98e2662e77af",
  "transport": "tcp",
  "signature_scheme": "hmac-sha256",
  "kernel_name": ""
}