{
  "shell_port": 51567,
  "iopub_port": 35481,
  "stdin_port": 38273,
  "control_port": 32793,
  "hb_port": 42689,
  "ip": "127.0.0.1",
  "key": "337cd77b-8050ce24d3bc1464a8814078",
  "transport": "tcp",
  "signature_scheme": "hmac-sha256",
  "kernel_name": ""
}