{
  "shell_port": 59317,
  "iopub_port": 49937,
  "stdin_port": 59081,
  "control_port": 50285,
  "hb_port": 34449,
  "ip": "127.0.0.1",
  "key": "46f4b7f0-54e35476500b83464d82a99b",
  "transport": "tcp",
  "signature_scheme": "hmac-sha256",
  "kernel_name": ""
}