{
  "base_url": "/",
  "hostname": "localhost",
  "notebook_dir": "/home/henry/AuthorshipTask",
  "password": false,
  "pid": 3769,
  "port": 8888,
  "secure": false,
  "token": "f47762219d800b9da23be2441ed4397da071f13ecd829639",
  "url": "http://localhost:8888/"
}