{
  "base_url": "/",
  "hostname": "localhost",
  "notebook_dir": "/home/henry",
  "password": false,
  "pid": 4100,
  "port": 8888,
  "secure": false,
  "token": "2e4c78f04a56461dc98cea0633edfafb7db999af86bb0652",
  "url": "http://localhost:8888/"
}