{
  "base_url": "/",
  "hostname": "localhost",
  "notebook_dir": "/home/henry",
  "password": false,
  "pid": 4081,
  "port": 8888,
  "secure": false,
  "token": "cf1e1435264f61f53c3bee401970097abc08ec6898ec18eb",
  "url": "http://localhost:8888/"
}