{
  "base_url": "/",
  "hostname": "localhost",
  "notebook_dir": "/home/henry",
  "password": false,
  "pid": 5609,
  "port": 8888,
  "secure": false,
  "token": "4226dc696f1f591d9b5e24cee72689c78c1b127987d9030c",
  "url": "http://localhost:8888/"
}