{
  "base_url": "/",
  "hostname": "localhost",
  "notebook_dir": "/home/henry",
  "password": false,
  "pid": 3823,
  "port": 8888,
  "secure": false,
  "token": "125566c448c5963a32bd9c3d426726062a79a8c9d29b3cbe",
  "url": "http://localhost:8888/"
}