{
  "base_url": "/",
  "hostname": "localhost",
  "notebook_dir": "/home/henry",
  "password": false,
  "pid": 3642,
  "port": 8888,
  "secure": false,
  "token": "a15bcde909b464ac1d6d5e7f0fc780ae7b915eda5d381a1a",
  "url": "http://localhost:8888/"
}